{
  "data": [
    {
      "id": "9404ef8f-fb24-419b-8653-369540d2a3b0",
      "name": "Almond cookie",
      "sku": null,
      "recipeYield": "1.000",
      "isSubRecipe": false,
      "recipeYieldType": "Each",
      "status": "ACTIVE",
      "productClass": "Cookie",
      "createdAt": "2025-11-17T09:38:46.094Z",
      "sitesCount": 16,
      "sites": [
        "5525e105-ffe1-4875-8e3d-017d9ad739ca",
        "93d4e234-bdbd-4d7d-828c-6045519b05af",
        "8f010fbf-a143-479f-b7fb-e9e084af0ed1",
        "6b8fde8b-42a3-4e5d-984e-3a77c504fc8d",
        "64ce33d7-8681-4a9f-808b-2fa9f325b73c",
        "379c8081-aeff-4978-a004-c325903271dd",
        "0a1c3888-ca32-43e1-b07d-b820cd132629",
        "1b0551fe-dfee-451f-b600-fb8c6fb3dd59",
        "35e7d835-0012-41a2-8e3f-58ec821be633",
        "fc42804d-cc3e-4043-b115-7e803ee3e134",
        "ea6a8929-990f-41b6-931f-1ebd33103d0e",
        "e15b32e0-4ed8-40cf-b91a-5eda7cdd15cc",
        "d47df061-5208-4417-bd3d-00178c555c81",
        "97d3f380-d29c-4ac3-a20d-b2e6e8427339",
        "9699173d-f5b7-4c3b-9dc7-0cb8e9a5ed59",
        "95f690d5-8108-4097-9b86-f2eb613e7ce0"
      ],
      "ingredientsCost": "0.335",
      "recipeCategory": null,
      "isUsingEmptyMasterProduct": false
    },
    {
      "id": "d377e837-2867-44c7-a830-9c7506081386",
      "name": "Almond Frangipane",
      "sku": null,
      "recipeYield": "3852.000",
      "isSubRecipe": true,
      "recipeYieldType": "G",
      "status": "ACTIVE",
      "productClass": "Food",
      "createdAt": "2025-08-15T14:48:13.720Z",
      "sitesCount": 1,
      "sites": ["64ce33d7-8681-4a9f-808b-2fa9f325b73c"],
      "ingredientsCost": "22.562",
      "recipeCategory": null,
      "isUsingEmptyMasterProduct": false
    },
    {
      "id": "e368c7b4-a7f9-4fe6-bd40-e20331d9b9a6",
      "name": "Almond Swirl",
      "sku": null,
      "recipeYield": "1.000",
      "isSubRecipe": false,
      "recipeYieldType": "Item",
      "status": "ACTIVE",
      "productClass": "Food",
      "createdAt": "2025-08-15T15:59:56.172Z",
      "sitesCount": 1,
      "sites": ["64ce33d7-8681-4a9f-808b-2fa9f325b73c"],
      "ingredientsCost": "0.444",
      "recipeCategory": null,
      "isUsingEmptyMasterProduct": false
    },
    {
      "id": "b06398db-f130-4b04-933f-6dd96ef43eed",
      "name": "Apple Puree",
      "sku": null,
      "recipeYield": "3155.000",
      "isSubRecipe": true,
      "recipeYieldType": "GRAM",
      "status": "ACTIVE",
      "productClass": "Food",
      "createdAt": "2025-08-15T12:28:58.496Z",
      "sitesCount": 1,
      "sites": ["64ce33d7-8681-4a9f-808b-2fa9f325b73c"],
      "ingredientsCost": "6.270",
      "recipeCategory": null,
      "isUsingEmptyMasterProduct": false
    },
    {
      "id": "43601341-6195-40e6-b198-7e42e432600e",
      "name": "Brown Butter Cookie",
      "sku": null,
      "recipeYield": "1.000",
      "isSubRecipe": false,
      "recipeYieldType": "Item",
      "status": "ACTIVE",
      "productClass": "Cookie",
      "createdAt": "2025-08-27T09:09:42.180Z",
      "sitesCount": 1,
      "sites": ["64ce33d7-8681-4a9f-808b-2fa9f325b73c"],
      "ingredientsCost": "0.429",
      "recipeCategory": null,
      "isUsingEmptyMasterProduct": false
    },
    {
      "id": "f716c891-9c8b-4603-b70f-b3635f5c20ac",
      "name": "Brownie",
      "sku": null,
      "recipeYield": "1.000",
      "isSubRecipe": false,
      "recipeYieldType": "EACH",
      "status": "ACTIVE",
      "productClass": "Food",
      "createdAt": "2025-11-13T07:42:51.425Z",
      "sitesCount": 3,
      "sites": [
        "64ce33d7-8681-4a9f-808b-2fa9f325b73c",
        "9699173d-f5b7-4c3b-9dc7-0cb8e9a5ed59",
        "d47df061-5208-4417-bd3d-00178c555c81"
      ],
      "ingredientsCost": "0.491",
      "recipeCategory": null,
      "isUsingEmptyMasterProduct": false
    },
    {
      "id": "c4f7c159-c0f2-4a85-b514-3529533df623",
      "name": "Choc Hazelnut Swirl",
      "sku": null,
      "recipeYield": "1.000",
      "isSubRecipe": false,
      "recipeYieldType": "Item",
      "status": "ACTIVE",
      "productClass": "Food",
      "createdAt": "2025-08-15T16:04:26.111Z",
      "sitesCount": 1,
      "sites": ["64ce33d7-8681-4a9f-808b-2fa9f325b73c"],
      "ingredientsCost": "0.494",
      "recipeCategory": null,
      "isUsingEmptyMasterProduct": false
    },
    {
      "id": "63387fef-7e0e-4fb6-8018-ade8c05e67a8",
      "name": "Cinna swirl",
      "sku": null,
      "recipeYield": "1.000",
      "isSubRecipe": false,
      "recipeYieldType": "Item",
      "status": "ACTIVE",
      "productClass": "Food",
      "createdAt": "2025-08-15T16:02:01.604Z",
      "sitesCount": 1,
      "sites": ["64ce33d7-8681-4a9f-808b-2fa9f325b73c"],
      "ingredientsCost": "0.254",
      "recipeCategory": null,
      "isUsingEmptyMasterProduct": false
    },
    {
      "id": "0eefd08e-1170-4429-a57a-8eeed30dfa93",
      "name": "Citrus Frosting",
      "sku": null,
      "recipeYield": "1080.000",
      "isSubRecipe": true,
      "recipeYieldType": "GRAM",
      "status": "ACTIVE",
      "productClass": "Food",
      "createdAt": "2025-08-18T13:51:07.397Z",
      "sitesCount": 1,
      "sites": ["64ce33d7-8681-4a9f-808b-2fa9f325b73c"],
      "ingredientsCost": "3.623",
      "recipeCategory": null,
      "isUsingEmptyMasterProduct": false
    },
    {
      "id": "38cbee69-3015-4fd0-bd64-c6f1ad82184c",
      "name": "Croissant",
      "sku": null,
      "recipeYield": "1.000",
      "isSubRecipe": false,
      "recipeYieldType": "Item",
      "status": "ACTIVE",
      "productClass": "Food",
      "createdAt": "2025-08-15T15:57:21.000Z",
      "sitesCount": 1,
      "sites": ["64ce33d7-8681-4a9f-808b-2fa9f325b73c"],
      "ingredientsCost": "0.121",
      "recipeCategory": null,
      "isUsingEmptyMasterProduct": false
    },
    {
      "id": "6241eff9-ed04-4a47-bdc8-422de28a645d",
      "name": "Date Paste",
      "sku": null,
      "recipeYield": "2852.000",
      "isSubRecipe": true,
      "recipeYieldType": "G",
      "status": "ACTIVE",
      "productClass": "Food",
      "createdAt": "2025-08-18T15:06:10.675Z",
      "sitesCount": 1,
      "sites": ["64ce33d7-8681-4a9f-808b-2fa9f325b73c"],
      "ingredientsCost": "8.970",
      "recipeCategory": null,
      "isUsingEmptyMasterProduct": false
    },
    {
      "id": "352bbb1f-29a5-422b-aab1-4a3f3f1194b0",
      "name": "Dough",
      "sku": null,
      "recipeYield": "1.000",
      "isSubRecipe": true,
      "recipeYieldType": "Kg",
      "status": "ACTIVE",
      "productClass": "Food",
      "createdAt": "2025-08-15T12:25:54.970Z",
      "sitesCount": 1,
      "sites": ["64ce33d7-8681-4a9f-808b-2fa9f325b73c"],
      "ingredientsCost": "1.469",
      "recipeCategory": null,
      "isUsingEmptyMasterProduct": false
    },
    {
      "id": "3873fe10-9607-4100-8212-df9d54b6374a",
      "name": "Earl grey filling",
      "sku": null,
      "recipeYield": "518.000",
      "isSubRecipe": true,
      "recipeYieldType": "G",
      "status": "ACTIVE",
      "productClass": "Food",
      "createdAt": "2025-08-15T15:19:40.501Z",
      "sitesCount": 1,
      "sites": ["64ce33d7-8681-4a9f-808b-2fa9f325b73c"],
      "ingredientsCost": "2.890",
      "recipeCategory": null,
      "isUsingEmptyMasterProduct": false
    },
    {
      "id": "18fbee6b-3e9f-4419-a844-7f49d2f9f7d3",
      "name": "Earl Grey Morning Bun",
      "sku": null,
      "recipeYield": "1.000",
      "isSubRecipe": false,
      "recipeYieldType": "Item",
      "status": "ACTIVE",
      "productClass": "Food",
      "createdAt": "2025-08-15T15:58:50.377Z",
      "sitesCount": 1,
      "sites": ["64ce33d7-8681-4a9f-808b-2fa9f325b73c"],
      "ingredientsCost": "0.168",
      "recipeCategory": null,
      "isUsingEmptyMasterProduct": false
    },
    {
      "id": "8922e1db-7707-40d8-8f9f-7d6e051eb66e",
      "name": "Fermented dough",
      "sku": null,
      "recipeYield": "95.000",
      "isSubRecipe": true,
      "recipeYieldType": "GRAM",
      "status": "ACTIVE",
      "productClass": "Food",
      "createdAt": "2025-09-02T11:09:34.060Z",
      "sitesCount": 1,
      "sites": ["64ce33d7-8681-4a9f-808b-2fa9f325b73c"],
      "ingredientsCost": "0.131",
      "recipeCategory": null,
      "isUsingEmptyMasterProduct": false
    },
    {
      "id": "ca034edf-919a-44ca-ae6e-432303331cee",
      "name": "Flourless choc & pecan cookie",
      "sku": null,
      "recipeYield": "1.000",
      "isSubRecipe": false,
      "recipeYieldType": "Item",
      "status": "ACTIVE",
      "productClass": "Cookie",
      "createdAt": "2025-08-27T09:05:58.028Z",
      "sitesCount": 16,
      "sites": [
        "0a1c3888-ca32-43e1-b07d-b820cd132629",
        "fc42804d-cc3e-4043-b115-7e803ee3e134",
        "ea6a8929-990f-41b6-931f-1ebd33103d0e",
        "e15b32e0-4ed8-40cf-b91a-5eda7cdd15cc",
        "d47df061-5208-4417-bd3d-00178c555c81",
        "97d3f380-d29c-4ac3-a20d-b2e6e8427339",
        "9699173d-f5b7-4c3b-9dc7-0cb8e9a5ed59",
        "95f690d5-8108-4097-9b86-f2eb613e7ce0",
        "93d4e234-bdbd-4d7d-828c-6045519b05af",
        "8f010fbf-a143-479f-b7fb-e9e084af0ed1",
        "6b8fde8b-42a3-4e5d-984e-3a77c504fc8d",
        "64ce33d7-8681-4a9f-808b-2fa9f325b73c",
        "5525e105-ffe1-4875-8e3d-017d9ad739ca",
        "379c8081-aeff-4978-a004-c325903271dd",
        "35e7d835-0012-41a2-8e3f-58ec821be633",
        "1b0551fe-dfee-451f-b600-fb8c6fb3dd59"
      ],
      "ingredientsCost": "0.646",
      "recipeCategory": null,
      "isUsingEmptyMasterProduct": false
    },
    {
      "id": "bdfc27c6-06d7-4c62-914d-09b305dd5b6a",
      "name": "gingerbread",
      "sku": null,
      "recipeYield": "1.000",
      "isSubRecipe": false,
      "recipeYieldType": "EACH",
      "status": "ACTIVE",
      "productClass": "Cookie",
      "createdAt": "2025-11-25T08:34:12.588Z",
      "sitesCount": 2,
      "sites": ["9699173d-f5b7-4c3b-9dc7-0cb8e9a5ed59", "64ce33d7-8681-4a9f-808b-2fa9f325b73c"],
      "ingredientsCost": "0.107",
      "recipeCategory": null,
      "isUsingEmptyMasterProduct": false
    },
    {
      "id": "52d9a78b-5c33-46b8-86a0-fbcf1fdc89a9",
      "name": "Gingerbread syrup",
      "sku": null,
      "recipeYield": "1200.000",
      "isSubRecipe": true,
      "recipeYieldType": "G",
      "status": "ARCHIVED",
      "productClass": "Beverage",
      "createdAt": "2025-11-27T08:11:46.116Z",
      "sitesCount": 2,
      "sites": ["64ce33d7-8681-4a9f-808b-2fa9f325b73c", "9699173d-f5b7-4c3b-9dc7-0cb8e9a5ed59"],
      "ingredientsCost": "2.985",
      "recipeCategory": null,
      "isUsingEmptyMasterProduct": false
    },
    {
      "id": "64010db7-98d6-4894-9ebd-b1cd128810bf",
      "name": "Golden spice mix",
      "sku": null,
      "recipeYield": "442.000",
      "isSubRecipe": true,
      "recipeYieldType": "G",
      "status": "ACTIVE",
      "productClass": "Beverage",
      "createdAt": "2025-09-29T11:13:51.169Z",
      "sitesCount": 2,
      "sites": ["64ce33d7-8681-4a9f-808b-2fa9f325b73c", "9699173d-f5b7-4c3b-9dc7-0cb8e9a5ed59"],
      "ingredientsCost": "2.737",
      "recipeCategory": null,
      "isUsingEmptyMasterProduct": false
    },
    {
      "id": "627b0429-a795-4b89-a99b-d1d4285d3bd3",
      "name": "Hot Chocolate Mix",
      "sku": null,
      "recipeYield": "1340.000",
      "isSubRecipe": true,
      "recipeYieldType": "G",
      "status": "ARCHIVED",
      "productClass": "Beverage",
      "createdAt": "2025-09-29T11:34:19.954Z",
      "sitesCount": 2,
      "sites": ["9699173d-f5b7-4c3b-9dc7-0cb8e9a5ed59", "64ce33d7-8681-4a9f-808b-2fa9f325b73c"],
      "ingredientsCost": "15.540",
      "recipeCategory": null,
      "isUsingEmptyMasterProduct": false
    },
    {
      "id": "729cfa84-33b3-489d-a4ca-3d1f0c38d10b",
      "name": "Lemon dust",
      "sku": null,
      "recipeYield": "200.000",
      "isSubRecipe": true,
      "recipeYieldType": "G",
      "status": "ACTIVE",
      "productClass": "Food",
      "createdAt": "2025-08-27T20:30:43.192Z",
      "sitesCount": 1,
      "sites": ["64ce33d7-8681-4a9f-808b-2fa9f325b73c"],
      "ingredientsCost": "1.284",
      "recipeCategory": null,
      "isUsingEmptyMasterProduct": false
    },
    {
      "id": "81cff77a-055b-491c-a61a-dd0b26c2292b",
      "name": "Lemon Glaze",
      "sku": null,
      "recipeYield": "5704.000",
      "isSubRecipe": true,
      "recipeYieldType": "G",
      "status": "ACTIVE",
      "productClass": "Food",
      "createdAt": "2025-08-15T13:00:54.975Z",
      "sitesCount": 1,
      "sites": ["64ce33d7-8681-4a9f-808b-2fa9f325b73c"],
      "ingredientsCost": "9.536",
      "recipeCategory": null,
      "isUsingEmptyMasterProduct": false
    },
    {
      "id": "a4cf8955-a0c8-4783-86a6-57a59004096c",
      "name": "Lemon Poppy Swirl",
      "sku": null,
      "recipeYield": "1.000",
      "isSubRecipe": false,
      "recipeYieldType": "Item",
      "status": "ACTIVE",
      "productClass": "Food",
      "createdAt": "2025-08-15T16:03:32.985Z",
      "sitesCount": 1,
      "sites": ["64ce33d7-8681-4a9f-808b-2fa9f325b73c"],
      "ingredientsCost": "0.176",
      "recipeCategory": null,
      "isUsingEmptyMasterProduct": false
    },
    {
      "id": "5e834ff1-3bef-428c-a873-a4b58e42b79b",
      "name": "Melted Cheese Topping",
      "sku": null,
      "recipeYield": "300.000",
      "isSubRecipe": true,
      "recipeYieldType": "GRAM",
      "status": "ACTIVE",
      "productClass": "Food",
      "createdAt": "2025-08-15T14:51:35.414Z",
      "sitesCount": 1,
      "sites": ["64ce33d7-8681-4a9f-808b-2fa9f325b73c"],
      "ingredientsCost": "3.825",
      "recipeCategory": null,
      "isUsingEmptyMasterProduct": false
    },
    {
      "id": "d14cce4a-e4fc-4fa2-82ea-d4db014f8c15",
      "name": "Mince pie mix",
      "sku": null,
      "recipeYield": "1163.000",
      "isSubRecipe": true,
      "recipeYieldType": "G",
      "status": "ARCHIVED",
      "productClass": "Food",
      "createdAt": "2025-11-25T08:27:59.660Z",
      "sitesCount": 2,
      "sites": ["9699173d-f5b7-4c3b-9dc7-0cb8e9a5ed59", "64ce33d7-8681-4a9f-808b-2fa9f325b73c"],
      "ingredientsCost": "4.740",
      "recipeCategory": null,
      "isUsingEmptyMasterProduct": false
    },
    {
      "id": "dad15bae-e67a-4c21-a551-bb7419c7ed5c",
      "name": "Mince pier syrup",
      "sku": null,
      "recipeYield": "1200.000",
      "isSubRecipe": true,
      "recipeYieldType": "G",
      "status": "ARCHIVED",
      "productClass": "Beverage",
      "createdAt": "2025-11-27T08:16:12.871Z",
      "sitesCount": 2,
      "sites": ["9699173d-f5b7-4c3b-9dc7-0cb8e9a5ed59", "64ce33d7-8681-4a9f-808b-2fa9f325b73c"],
      "ingredientsCost": "2.913",
      "recipeCategory": null,
      "isUsingEmptyMasterProduct": false
    },
    {
      "id": "32e83385-7a59-4edb-8dab-2dfef25f6a33",
      "name": "mince pie swirl",
      "sku": null,
      "recipeYield": "1.000",
      "isSubRecipe": false,
      "recipeYieldType": "Each",
      "status": "ARCHIVED",
      "productClass": "Croissant",
      "createdAt": "2025-11-28T12:39:31.231Z",
      "sitesCount": 2,
      "sites": ["64ce33d7-8681-4a9f-808b-2fa9f325b73c", "9699173d-f5b7-4c3b-9dc7-0cb8e9a5ed59"],
      "ingredientsCost": "0.151",
      "recipeCategory": null,
      "isUsingEmptyMasterProduct": false
    },
    {
      "id": "d435a3d7-32fb-477a-95ed-66af9ab2ef4b",
      "name": "Oat & Raisin Cookie",
      "sku": null,
      "recipeYield": "1.000",
      "isSubRecipe": false,
      "recipeYieldType": "Item",
      "status": "ACTIVE",
      "productClass": "Cookie",
      "createdAt": "2025-08-27T09:00:55.556Z",
      "sitesCount": 1,
      "sites": ["64ce33d7-8681-4a9f-808b-2fa9f325b73c"],
      "ingredientsCost": "0.306",
      "recipeCategory": null,
      "isUsingEmptyMasterProduct": false
    },
    {
      "id": "680e459b-7a2d-4d2e-a84f-a80f1b923ba9",
      "name": "Okja Butter",
      "sku": null,
      "recipeYield": "3700.000",
      "isSubRecipe": true,
      "recipeYieldType": "GRAM",
      "status": "ACTIVE",
      "productClass": "Food",
      "createdAt": "2025-08-15T12:28:58.494Z",
      "sitesCount": 1,
      "sites": ["64ce33d7-8681-4a9f-808b-2fa9f325b73c"],
      "ingredientsCost": "14.085",
      "recipeCategory": null,
      "isUsingEmptyMasterProduct": false
    },
    {
      "id": "7826ff0f-ad48-426a-981a-2a3efe878459",
      "name": "Okja - Cashew Cream",
      "sku": null,
      "recipeYield": "2250.000",
      "isSubRecipe": true,
      "recipeYieldType": "GRAM",
      "status": "ACTIVE",
      "productClass": "Food",
      "createdAt": "2025-08-19T14:57:03.588Z",
      "sitesCount": 1,
      "sites": ["64ce33d7-8681-4a9f-808b-2fa9f325b73c"],
      "ingredientsCost": "3.495",
      "recipeCategory": null,
      "isUsingEmptyMasterProduct": false
    },
    {
      "id": "a65d2b12-70be-468e-b87e-10cb33c1352d",
      "name": "Okja Choc Hazelnut Spread",
      "sku": null,
      "recipeYield": "3004.000",
      "isSubRecipe": true,
      "recipeYieldType": "G",
      "status": "ACTIVE",
      "productClass": "Food",
      "createdAt": "2025-08-15T14:30:10.262Z",
      "sitesCount": 1,
      "sites": ["64ce33d7-8681-4a9f-808b-2fa9f325b73c"],
      "ingredientsCost": "35.505",
      "recipeCategory": null,
      "isUsingEmptyMasterProduct": false
    },
    {
      "id": "0e6d250e-ca82-4d3d-896d-d5078160cd50",
      "name": "Okja Cream Cheese",
      "sku": null,
      "recipeYield": "2500.000",
      "isSubRecipe": true,
      "recipeYieldType": "G",
      "status": "ACTIVE",
      "productClass": "Food",
      "createdAt": "2025-08-15T14:32:01.104Z",
      "sitesCount": 1,
      "sites": ["64ce33d7-8681-4a9f-808b-2fa9f325b73c"],
      "ingredientsCost": "10.522",
      "recipeCategory": null,
      "isUsingEmptyMasterProduct": false
    },
    {
      "id": "159bfa41-3850-4f9e-a50c-a3df43d13c5e",
      "name": "Okja Peanut Butter",
      "sku": null,
      "recipeYield": "1040.000",
      "isSubRecipe": true,
      "recipeYieldType": "G",
      "status": "ARCHIVED",
      "productClass": "Food",
      "createdAt": "2025-08-18T14:55:10.667Z",
      "sitesCount": 1,
      "sites": ["64ce33d7-8681-4a9f-808b-2fa9f325b73c"],
      "ingredientsCost": "5.876",
      "recipeCategory": null,
      "isUsingEmptyMasterProduct": false
    },
    {
      "id": "affd7c35-cc97-4c76-acd0-77bffaa76c9b",
      "name": "Okja Simple Syrup",
      "sku": null,
      "recipeYield": "5000.000",
      "isSubRecipe": true,
      "recipeYieldType": "G",
      "status": "ACTIVE",
      "productClass": "Food",
      "createdAt": "2025-08-15T13:04:12.406Z",
      "sitesCount": 1,
      "sites": ["64ce33d7-8681-4a9f-808b-2fa9f325b73c"],
      "ingredientsCost": "2.700",
      "recipeCategory": null,
      "isUsingEmptyMasterProduct": false
    },
    {
      "id": "5126e4a6-7da0-4ad7-8555-a600777bf66e",
      "name": "Orange dust",
      "sku": null,
      "recipeYield": "200.000",
      "isSubRecipe": true,
      "recipeYieldType": "G",
      "status": "ACTIVE",
      "productClass": "Food",
      "createdAt": "2025-08-27T20:29:21.294Z",
      "sitesCount": 1,
      "sites": ["64ce33d7-8681-4a9f-808b-2fa9f325b73c"],
      "ingredientsCost": "1.220",
      "recipeCategory": null,
      "isUsingEmptyMasterProduct": false
    },
    {
      "id": "63150106-9cac-4438-995e-2841c7119f2b",
      "name": "Orange Syrup",
      "sku": null,
      "recipeYield": "1400.000",
      "isSubRecipe": true,
      "recipeYieldType": "G",
      "status": "ACTIVE",
      "productClass": "Food",
      "createdAt": "2025-08-15T13:02:50.206Z",
      "sitesCount": 1,
      "sites": ["64ce33d7-8681-4a9f-808b-2fa9f325b73c"],
      "ingredientsCost": "3.068",
      "recipeCategory": null,
      "isUsingEmptyMasterProduct": false
    },
    {
      "id": "2b753996-41e6-462f-b2d5-15c92381e04c",
      "name": "Pan au Choc",
      "sku": null,
      "recipeYield": "1.000",
      "isSubRecipe": false,
      "recipeYieldType": "Item",
      "status": "ACTIVE",
      "productClass": "Food",
      "createdAt": "2025-08-15T15:58:03.176Z",
      "sitesCount": 1,
      "sites": ["64ce33d7-8681-4a9f-808b-2fa9f325b73c"],
      "ingredientsCost": "0.222",
      "recipeCategory": null,
      "isUsingEmptyMasterProduct": false
    },
    {
      "id": "2921019f-bca0-4ddc-b81c-9e222fa539f0",
      "name": "Paprika&tomato dust",
      "sku": null,
      "recipeYield": "200.000",
      "isSubRecipe": true,
      "recipeYieldType": "G",
      "status": "ACTIVE",
      "productClass": "Food",
      "createdAt": "2025-08-27T20:08:12.082Z",
      "sitesCount": 1,
      "sites": ["64ce33d7-8681-4a9f-808b-2fa9f325b73c"],
      "ingredientsCost": "4.055",
      "recipeCategory": null,
      "isUsingEmptyMasterProduct": false
    },
    {
      "id": "824e2456-418c-4cf6-8db0-56a4703b591e",
      "name": "Parmesan",
      "sku": null,
      "recipeYield": "688.000",
      "isSubRecipe": true,
      "recipeYieldType": "G",
      "status": "ACTIVE",
      "productClass": "Food",
      "createdAt": "2025-08-18T13:55:25.074Z",
      "sitesCount": 1,
      "sites": ["64ce33d7-8681-4a9f-808b-2fa9f325b73c"],
      "ingredientsCost": "6.117",
      "recipeCategory": null,
      "isUsingEmptyMasterProduct": false
    },
    {
      "id": "3b915b9d-8519-4eff-acd2-56e29081bdd0",
      "name": "Parsley powder",
      "sku": null,
      "recipeYield": "250.000",
      "isSubRecipe": true,
      "recipeYieldType": "G",
      "status": "ACTIVE",
      "productClass": "Food",
      "createdAt": "2025-08-15T14:51:09.129Z",
      "sitesCount": 1,
      "sites": ["64ce33d7-8681-4a9f-808b-2fa9f325b73c"],
      "ingredientsCost": "4.470",
      "recipeCategory": null,
      "isUsingEmptyMasterProduct": false
    },
    {
      "id": "721f904e-4cf9-41fd-9be9-88ca5a587d85",
      "name": "PB&J Swirl",
      "sku": null,
      "recipeYield": "1.000",
      "isSubRecipe": false,
      "recipeYieldType": "Item",
      "status": "ARCHIVED",
      "productClass": "Food",
      "createdAt": "2025-08-15T16:00:45.930Z",
      "sitesCount": 1,
      "sites": ["64ce33d7-8681-4a9f-808b-2fa9f325b73c"],
      "ingredientsCost": "0.796",
      "recipeCategory": null,
      "isUsingEmptyMasterProduct": false
    },
    {
      "id": "3eee40aa-e222-4779-ba40-0bb479f3f442",
      "name": "Peanut and date caramel",
      "sku": null,
      "recipeYield": "2600.000",
      "isSubRecipe": true,
      "recipeYieldType": "G",
      "status": "ARCHIVED",
      "productClass": "Food",
      "createdAt": "2025-08-27T20:42:09.344Z",
      "sitesCount": 1,
      "sites": ["64ce33d7-8681-4a9f-808b-2fa9f325b73c"],
      "ingredientsCost": "9.540",
      "recipeCategory": null,
      "isUsingEmptyMasterProduct": false
    },
    {
      "id": "fbef86b4-380f-4d11-b2c2-89ba537ccfea",
      "name": "Peanut Butter Cookie",
      "sku": null,
      "recipeYield": "1.000",
      "isSubRecipe": false,
      "recipeYieldType": "Item",
      "status": "ARCHIVED",
      "productClass": "Cookie",
      "createdAt": "2025-08-27T08:53:17.303Z",
      "sitesCount": 1,
      "sites": ["64ce33d7-8681-4a9f-808b-2fa9f325b73c"],
      "ingredientsCost": "0.276",
      "recipeCategory": null,
      "isUsingEmptyMasterProduct": false
    },
    {
      "id": "bd5bb6af-90e1-41e7-96de-6a6220b8a45e",
      "name": "Peanut Butter for Cookies",
      "sku": null,
      "recipeYield": "1060.000",
      "isSubRecipe": true,
      "recipeYieldType": "G",
      "status": "ARCHIVED",
      "productClass": "Food",
      "createdAt": "2025-08-27T08:52:19.990Z",
      "sitesCount": 1,
      "sites": ["64ce33d7-8681-4a9f-808b-2fa9f325b73c"],
      "ingredientsCost": "6.108",
      "recipeCategory": null,
      "isUsingEmptyMasterProduct": false
    },
    {
      "id": "b7f2daa1-e0d8-4b0f-8a6d-55d999eb4d68",
      "name": "Peanut butter glaze",
      "sku": null,
      "recipeYield": "355.000",
      "isSubRecipe": true,
      "recipeYieldType": "G",
      "status": "ARCHIVED",
      "productClass": "Food",
      "createdAt": "2025-08-15T14:55:00.145Z",
      "sitesCount": 1,
      "sites": ["64ce33d7-8681-4a9f-808b-2fa9f325b73c"],
      "ingredientsCost": "5.213",
      "recipeCategory": null,
      "isUsingEmptyMasterProduct": false
    },
    {
      "id": "718bf4d1-3575-4f61-a422-e0d064936f9e",
      "name": "Pistachio Frangipane",
      "sku": null,
      "recipeYield": "3243.000",
      "isSubRecipe": true,
      "recipeYieldType": "G",
      "status": "ACTIVE",
      "productClass": "Food",
      "createdAt": "2025-08-15T14:49:46.769Z",
      "sitesCount": 1,
      "sites": ["64ce33d7-8681-4a9f-808b-2fa9f325b73c"],
      "ingredientsCost": "33.364",
      "recipeCategory": null,
      "isUsingEmptyMasterProduct": false
    },
    {
      "id": "bdfe188b-eb64-4a64-8cdc-79344507c19a",
      "name": "Pistachio Swirl",
      "sku": null,
      "recipeYield": "1.000",
      "isSubRecipe": false,
      "recipeYieldType": "Item",
      "status": "ACTIVE",
      "productClass": "Food",
      "createdAt": "2025-08-15T16:05:48.146Z",
      "sitesCount": 1,
      "sites": ["64ce33d7-8681-4a9f-808b-2fa9f325b73c"],
      "ingredientsCost": "0.682",
      "recipeCategory": null,
      "isUsingEmptyMasterProduct": false
    },
    {
      "id": "afc1be42-fd4f-477f-8573-9bb78a23b30a",
      "name": "PR Cinnamon BOX",
      "sku": null,
      "recipeYield": "1.000",
      "isSubRecipe": false,
      "recipeYieldType": "Item",
      "status": "ACTIVE",
      "productClass": "Croissant",
      "createdAt": "2026-02-10T08:25:04.380Z",
      "sitesCount": 1,
      "sites": ["64ce33d7-8681-4a9f-808b-2fa9f325b73c"],
      "ingredientsCost": "1.008",
      "recipeCategory": null,
      "isUsingEmptyMasterProduct": false
    },
    {
      "id": "c3450100-f6eb-49d1-b634-4a0d5f583d45",
      "name": "PR Croissant BOX",
      "sku": null,
      "recipeYield": "1.000",
      "isSubRecipe": false,
      "recipeYieldType": "Item",
      "status": "ACTIVE",
      "productClass": null,
      "createdAt": "2026-02-10T08:18:29.013Z",
      "sitesCount": 1,
      "sites": ["64ce33d7-8681-4a9f-808b-2fa9f325b73c"],
      "ingredientsCost": "0.484",
      "recipeCategory": null,
      "isUsingEmptyMasterProduct": false
    },
    {
      "id": "ff4796f2-48dc-4a16-af74-0f709b552242",
      "name": "PR mix BOX",
      "sku": null,
      "recipeYield": "1.000",
      "isSubRecipe": false,
      "recipeYieldType": "Item",
      "status": "ACTIVE",
      "productClass": "Croissant",
      "createdAt": "2026-02-10T08:28:30.413Z",
      "sitesCount": 1,
      "sites": ["64ce33d7-8681-4a9f-808b-2fa9f325b73c"],
      "ingredientsCost": "0.765",
      "recipeCategory": null,
      "isUsingEmptyMasterProduct": false
    }
  ],
  "page": 1,
  "size": 50,
  "total": 69,
  "totalPages": 2
}
